/opt/vbs-demo/src/main/java/com/axefinance/demoapp/resources/HelloWorldResource.java
/opt/vbs-demo/src/main/java/com/axefinance/demoapp/health/TemplateHealthCheck.java
/opt/vbs-demo/src/main/java/com/axefinance/demoapp/HelloWorldApplication.java
/opt/vbs-demo/src/main/java/com/axefinance/demoapp/HelloWorldConfiguration.java
/opt/vbs-demo/src/main/java/com/axefinance/demoapp/api/Saying.java
